{
  "id": "ede45034-447d-4016-8bfb-eb60ccee97c7",
  "name": "Default Fallback Intent",
  "auto": true,
  "contexts": [],
  "responses": [
    {
      "resetContexts": false,
      "action": "input.unknown",
      "affectedContexts": [],
      "parameters": [],
      "messages": [
        {
          "type": 0,
          "speech": [
            "I am not sure how to help with that. Try asking another question, or contact us to send feedback! You can always find us in the DSC. Just say: \"Join the Developer Students Club\"",
            "Well... seems like they didn't program me to help you with that. Join the Developer Students Club and help them make the helper better. So much help! To do so, Just say: \"Join the Developer Students Club\"",
            "While I don't know the answer to that, I definitely know the answer to:  \"How do I join the Developer Student's Club\". Wanna ask me?"
          ]
        },
        {
          "type": 4,
          "payload": {},
          "lang": "en"
        }
      ],
      "defaultResponsePlatforms": {},
      "speech": []
    }
  ],
  "priority": 500000,
  "webhookUsed": false,
  "webhookForSlotFilling": false,
  "lastUpdate": 1532825384,
  "fallbackIntent": true,
  "events": [],
  "userSays": [],
  "followUpIntents": [],
  "liveAgentHandoff": false,
  "endInteraction": false,
  "templates": []
}